%YAML 1.1
%TAG !u! tag:unity3d.com,2011:
--- !u!1 &142012
GameObject:
  m_ObjectHideFlags: 0
  m_PrefabParentObject: {fileID: 0}
  m_PrefabInternal: {fileID: 100100000}
  serializedVersion: 4
  m_Component:
  - 4: {fileID: 408706}
  - 23: {fileID: 2302698}
  - 114: {fileID: 11463258}
  - 33: {fileID: 3300132}
  - 114: {fileID: 11408176}
  - 64: {fileID: 6423580}
  m_Layer: 0
  m_Name: Coin
  m_TagString: Coin
  m_Icon: {fileID: 0}
  m_NavMeshLayer: 0
  m_StaticEditorFlags: 0
  m_IsActive: 1
--- !u!4 &408706
Transform:
  m_ObjectHideFlags: 1
  m_PrefabParentObject: {fileID: 0}
  m_PrefabInternal: {fileID: 100100000}
  m_GameObject: {fileID: 142012}
  m_LocalRotation: {x: .707106829, y: 0, z: 0, w: .707106709}
  m_LocalPosition: {x: 0, y: 0, z: 0}
  m_LocalScale: {x: .5, y: .5, z: .5}
  m_Children: []
  m_Father: {fileID: 0}
  m_RootOrder: 0
--- !u!23 &2302698
MeshRenderer:
  m_ObjectHideFlags: 1
  m_PrefabParentObject: {fileID: 0}
  m_PrefabInternal: {fileID: 100100000}
  m_GameObject: {fileID: 142012}
  m_Enabled: 1
  m_CastShadows: 1
  m_ReceiveShadows: 1
  m_Materials:
  - {fileID: 2100000, guid: 55296d1b6ee54e14e8eb4648d4b448ee, type: 2}
  m_SubsetIndices: 
  m_StaticBatchRoot: {fileID: 0}
  m_UseLightProbes: 1
  m_ReflectionProbeUsage: 1
  m_ProbeAnchor: {fileID: 0}
  m_ScaleInLightmap: 1
  m_PreserveUVs: 0
  m_ImportantGI: 0
  m_AutoUVMaxDistance: .5
  m_AutoUVMaxAngle: 89
  m_LightmapParameters: {fileID: 0}
  m_SortingLayerID: 0
  m_SortingOrder: 0
--- !u!33 &3300132
MeshFilter:
  m_ObjectHideFlags: 1
  m_PrefabParentObject: {fileID: 0}
  m_PrefabInternal: {fileID: 100100000}
  m_GameObject: {fileID: 142012}
  m_Mesh: {fileID: 0}
--- !u!64 &6423580
MeshCollider:
  m_ObjectHideFlags: 1
  m_PrefabParentObject: {fileID: 0}
  m_PrefabInternal: {fileID: 100100000}
  m_GameObject: {fileID: 142012}
  m_Material: {fileID: 0}
  m_IsTrigger: 0
  m_Enabled: 1
  serializedVersion: 2
  m_Convex: 0
  m_Mesh: {fileID: 0}
--- !u!114 &11408176
MonoBehaviour:
  m_ObjectHideFlags: 1
  m_PrefabParentObject: {fileID: 0}
  m_PrefabInternal: {fileID: 100100000}
  m_GameObject: {fileID: 142012}
  m_Enabled: 1
  m_EditorHideFlags: 0
  m_Script: {fileID: 185759285, guid: 2e350ef818b03ea4aa5f878c4db0d54e, type: 3}
  m_Name: 
  m_EditorClassIdentifier: 
  _quads:
  - _indices: 000000000100000002000000010000000300000002000000
    _distinctIndices: 00000000010000000200000003000000
    _edges:
    - x: 0
      y: 1
    - x: 2
      y: 0
    - x: 1
      y: 3
    - x: 3
      y: 2
    _smoothingGroup: 0
    _uv:
      useWorldSpace: 0
      flipU: 0
      flipV: 0
      swapUV: 0
      fill: 1
      scale: {x: 1, y: 1}
      offset: {x: 0, y: 0}
      rotation: 0
      justify: 5
      localPivot: {x: .191341579, y: .0999998748}
      localSize: {x: .382683396, y: .19999975}
    _mat: {fileID: 2100000, guid: 55296d1b6ee54e14e8eb4648d4b448ee, type: 2}
    manualUV: 0
    elementGroup: 0
    textureGroup: -1
  - _indices: 040000000500000006000000050000000700000006000000
    _distinctIndices: 04000000050000000600000007000000
    _edges:
    - x: 4
      y: 5
    - x: 6
      y: 4
    - x: 5
      y: 7
    - x: 7
      y: 6
    _smoothingGroup: 0
    _uv:
      useWorldSpace: 0
      flipU: 0
      flipV: 0
      swapUV: 0
      fill: 1
      scale: {x: 1, y: 1}
      offset: {x: 0, y: 0}
      rotation: 0
      justify: 5
      localPivot: {x: .191341639, y: .0999998748}
      localSize: {x: .382683277, y: .19999975}
    _mat: {fileID: 2100000, guid: 55296d1b6ee54e14e8eb4648d4b448ee, type: 2}
    manualUV: 0
    elementGroup: 0
    textureGroup: -1
  - _indices: 08000000090000000a000000090000000b0000000a000000
    _distinctIndices: 08000000090000000a0000000b000000
    _edges:
    - x: 8
      y: 9
    - x: 10
      y: 8
    - x: 9
      y: 11
    - x: 11
      y: 10
    _smoothingGroup: 0
    _uv:
      useWorldSpace: 0
      flipU: 0
      flipV: 0
      swapUV: 0
      fill: 1
      scale: {x: 1, y: 1}
      offset: {x: 0, y: 0}
      rotation: 0
      justify: 5
      localPivot: {x: .191341713, y: .0999998748}
      localSize: {x: .382683426, y: .19999975}
    _mat: {fileID: 2100000, guid: 55296d1b6ee54e14e8eb4648d4b448ee, type: 2}
    manualUV: 0
    elementGroup: 0
    textureGroup: -1
  - _indices: 0c0000000d0000000e0000000d0000000f0000000e000000
    _distinctIndices: 0c0000000d0000000e0000000f000000
    _edges:
    - x: 12
      y: 13
    - x: 14
      y: 12
    - x: 13
      y: 15
    - x: 15
      y: 14
    _smoothingGroup: 0
    _uv:
      useWorldSpace: 0
      flipU: 0
      flipV: 0
      swapUV: 0
      fill: 1
      scale: {x: 1, y: 1}
      offset: {x: 0, y: 0}
      rotation: 0
      justify: 5
      localPivot: {x: .191341758, y: .0999998748}
      localSize: {x: .382683516, y: .19999975}
    _mat: {fileID: 2100000, guid: 55296d1b6ee54e14e8eb4648d4b448ee, type: 2}
    manualUV: 0
    elementGroup: 0
    textureGroup: -1
  - _indices: 100000001100000012000000110000001300000012000000
    _distinctIndices: 10000000110000001200000013000000
    _edges:
    - x: 16
      y: 17
    - x: 18
      y: 16
    - x: 17
      y: 19
    - x: 19
      y: 18
    _smoothingGroup: 0
    _uv:
      useWorldSpace: 0
      flipU: 0
      flipV: 0
      swapUV: 0
      fill: 1
      scale: {x: 1, y: 1}
      offset: {x: 0, y: 0}
      rotation: 0
      justify: 5
      localPivot: {x: .191341281, y: .0999998748}
      localSize: {x: .382682681, y: .19999975}
    _mat: {fileID: 2100000, guid: 55296d1b6ee54e14e8eb4648d4b448ee, type: 2}
    manualUV: 0
    elementGroup: 0
    textureGroup: -1
  - _indices: 140000001500000016000000150000001700000016000000
    _distinctIndices: 14000000150000001600000017000000
    _edges:
    - x: 20
      y: 21
    - x: 22
      y: 20
    - x: 21
      y: 23
    - x: 23
      y: 22
    _smoothingGroup: 0
    _uv:
      useWorldSpace: 0
      flipU: 0
      flipV: 0
      swapUV: 0
      fill: 1
      scale: {x: 1, y: 1}
      offset: {x: 0, y: 0}
      rotation: 0
      justify: 5
      localPivot: {x: .191341579, y: .0999998748}
      localSize: {x: .382683396, y: .19999975}
    _mat: {fileID: 2100000, guid: 55296d1b6ee54e14e8eb4648d4b448ee, type: 2}
    manualUV: 0
    elementGroup: 0
    textureGroup: -1
  - _indices: 18000000190000001a000000190000001b0000001a000000
    _distinctIndices: 18000000190000001a0000001b000000
    _edges:
    - x: 24
      y: 25
    - x: 26
      y: 24
    - x: 25
      y: 27
    - x: 27
      y: 26
    _smoothingGroup: 0
    _uv:
      useWorldSpace: 0
      flipU: 0
      flipV: 0
      swapUV: 0
      fill: 1
      scale: {x: 1, y: 1}
      offset: {x: 0, y: 0}
      rotation: 0
      justify: 5
      localPivot: {x: .191341385, y: .0999998748}
      localSize: {x: .38268283, y: .19999975}
    _mat: {fileID: 2100000, guid: 55296d1b6ee54e14e8eb4648d4b448ee, type: 2}
    manualUV: 0
    elementGroup: 0
    textureGroup: -1
  - _indices: 1c0000001d0000001e0000001d0000001f0000001e000000
    _distinctIndices: 1c0000001d0000001e0000001f000000
    _edges:
    - x: 28
      y: 29
    - x: 30
      y: 28
    - x: 29
      y: 31
    - x: 31
      y: 30
    _smoothingGroup: 0
    _uv:
      useWorldSpace: 0
      flipU: 0
      flipV: 0
      swapUV: 0
      fill: 1
      scale: {x: 1, y: 1}
      offset: {x: 0, y: 0}
      rotation: 0
      justify: 5
      localPivot: {x: .191341341, y: .0999998748}
      localSize: {x: .382682681, y: .19999975}
    _mat: {fileID: 2100000, guid: 55296d1b6ee54e14e8eb4648d4b448ee, type: 2}
    manualUV: 0
    elementGroup: 0
    textureGroup: -1
  - _indices: 220000002100000020000000
    _distinctIndices: 220000002100000020000000
    _edges:
    - x: 34
      y: 33
    - x: 33
      y: 32
    - x: 32
      y: 34
    _smoothingGroup: 0
    _uv:
      useWorldSpace: 0
      flipU: 0
      flipV: 0
      swapUV: 0
      fill: 1
      scale: {x: 1, y: 1}
      offset: {x: 0, y: 0}
      rotation: 0
      justify: 5
      localPivot: {x: .249999762, y: .176776707}
      localSize: {x: .499999523, y: .353553414}
    _mat: {fileID: 2100000, guid: 55296d1b6ee54e14e8eb4648d4b448ee, type: 2}
    manualUV: 0
    elementGroup: 0
    textureGroup: -1
  - _indices: 280000002700000026000000
    _distinctIndices: 280000002700000026000000
    _edges:
    - x: 40
      y: 39
    - x: 39
      y: 38
    - x: 38
      y: 40
    _smoothingGroup: 0
    _uv:
      useWorldSpace: 0
      flipU: 0
      flipV: 0
      swapUV: 0
      fill: 1
      scale: {x: 1, y: 1}
      offset: {x: 0, y: 0}
      rotation: 0
      justify: 5
      localPivot: {x: .176776588, y: .25000003}
      localSize: {x: .353553176, y: .50000006}
    _mat: {fileID: 2100000, guid: 55296d1b6ee54e14e8eb4648d4b448ee, type: 2}
    manualUV: 0
    elementGroup: 0
    textureGroup: -1
  - _indices: 2e0000002d0000002c000000
    _distinctIndices: 2e0000002d0000002c000000
    _edges:
    - x: 46
      y: 45
    - x: 45
      y: 44
    - x: 44
      y: 46
    _smoothingGroup: 0
    _uv:
      useWorldSpace: 0
      flipU: 0
      flipV: 0
      swapUV: 0
      fill: 1
      scale: {x: 1, y: 1}
      offset: {x: 0, y: 0}
      rotation: 0
      justify: 5
      localPivot: {x: .176776737, y: .25000003}
      localSize: {x: .353553474, y: .50000006}
    _mat: {fileID: 2100000, guid: 55296d1b6ee54e14e8eb4648d4b448ee, type: 2}
    manualUV: 0
    elementGroup: 0
    textureGroup: -1
  - _indices: 340000003300000032000000
    _distinctIndices: 340000003300000032000000
    _edges:
    - x: 52
      y: 51
    - x: 51
      y: 50
    - x: 50
      y: 52
    _smoothingGroup: 0
    _uv:
      useWorldSpace: 0
      flipU: 0
      flipV: 0
      swapUV: 0
      fill: 1
      scale: {x: 1, y: 1}
      offset: {x: 0, y: 0}
      rotation: 0
      justify: 5
      localPivot: {x: .25000003, y: .176776797}
      localSize: {x: .50000006, y: .353553474}
    _mat: {fileID: 2100000, guid: 55296d1b6ee54e14e8eb4648d4b448ee, type: 2}
    manualUV: 0
    elementGroup: 0
    textureGroup: -1
  - _indices: 3a0000003900000038000000
    _distinctIndices: 3a0000003900000038000000
    _edges:
    - x: 58
      y: 57
    - x: 57
      y: 56
    - x: 56
      y: 58
    _smoothingGroup: 0
    _uv:
      useWorldSpace: 0
      flipU: 0
      flipV: 0
      swapUV: 0
      fill: 1
      scale: {x: 1, y: 1}
      offset: {x: 0, y: 0}
      rotation: 0
      justify: 5
      localPivot: {x: .25000003, y: .17677629}
      localSize: {x: .50000006, y: .35355258}
    _mat: {fileID: 2100000, guid: 55296d1b6ee54e14e8eb4648d4b448ee, type: 2}
    manualUV: 0
    elementGroup: 0
    textureGroup: -1
  - _indices: 400000003f0000003e000000
    _distinctIndices: 400000003f0000003e000000
    _edges:
    - x: 64
      y: 63
    - x: 63
      y: 62
    - x: 62
      y: 64
    _smoothingGroup: 0
    _uv:
      useWorldSpace: 0
      flipU: 0
      flipV: 0
      swapUV: 0
      fill: 1
      scale: {x: 1, y: 1}
      offset: {x: 0, y: 0}
      rotation: 0
      justify: 5
      localPivot: {x: .176776737, y: .249999523}
      localSize: {x: .353553474, y: .499999046}
    _mat: {fileID: 2100000, guid: 55296d1b6ee54e14e8eb4648d4b448ee, type: 2}
    manualUV: 0
    elementGroup: 0
    textureGroup: -1
  - _indices: 460000004500000044000000
    _distinctIndices: 460000004500000044000000
    _edges:
    - x: 70
      y: 69
    - x: 69
      y: 68
    - x: 68
      y: 70
    _smoothingGroup: 0
    _uv:
      useWorldSpace: 0
      flipU: 0
      flipV: 0
      swapUV: 0
      fill: 1
      scale: {x: 1, y: 1}
      offset: {x: 0, y: 0}
      rotation: 0
      justify: 5
      localPivot: {x: .176776409, y: .249999523}
      localSize: {x: .353552818, y: .499999046}
    _mat: {fileID: 2100000, guid: 55296d1b6ee54e14e8eb4648d4b448ee, type: 2}
    manualUV: 0
    elementGroup: 0
    textureGroup: -1
  - _indices: 4c0000004b0000004a000000
    _distinctIndices: 4c0000004b0000004a000000
    _edges:
    - x: 76
      y: 75
    - x: 75
      y: 74
    - x: 74
      y: 76
    _smoothingGroup: 0
    _uv:
      useWorldSpace: 0
      flipU: 0
      flipV: 0
      swapUV: 0
      fill: 1
      scale: {x: 1, y: 1}
      offset: {x: 0, y: 0}
      rotation: 0
      justify: 5
      localPivot: {x: .249999762, y: .17677629}
      localSize: {x: .499999523, y: .35355258}
    _mat: {fileID: 2100000, guid: 55296d1b6ee54e14e8eb4648d4b448ee, type: 2}
    manualUV: 0
    elementGroup: 0
    textureGroup: -1
  - _indices: 230000002400000025000000
    _distinctIndices: 230000002400000025000000
    _edges:
    - x: 35
      y: 36
    - x: 36
      y: 37
    - x: 37
      y: 35
    _smoothingGroup: 0
    _uv:
      useWorldSpace: 0
      flipU: 0
      flipV: 0
      swapUV: 0
      fill: 1
      scale: {x: 1, y: 1}
      offset: {x: 0, y: 0}
      rotation: 0
      justify: 5
      localPivot: {x: .249999762, y: .176776707}
      localSize: {x: .499999523, y: .353553414}
    _mat: {fileID: 2100000, guid: 55296d1b6ee54e14e8eb4648d4b448ee, type: 2}
    manualUV: 0
    elementGroup: 0
    textureGroup: -1
  - _indices: 290000002a0000002b000000
    _distinctIndices: 290000002a0000002b000000
    _edges:
    - x: 41
      y: 42
    - x: 42
      y: 43
    - x: 43
      y: 41
    _smoothingGroup: 0
    _uv:
      useWorldSpace: 0
      flipU: 0
      flipV: 0
      swapUV: 0
      fill: 1
      scale: {x: 1, y: 1}
      offset: {x: 0, y: 0}
      rotation: 0
      justify: 5
      localPivot: {x: .176776707, y: .25000003}
      localSize: {x: .353553176, y: .50000006}
    _mat: {fileID: 2100000, guid: 55296d1b6ee54e14e8eb4648d4b448ee, type: 2}
    manualUV: 0
    elementGroup: 0
    textureGroup: -1
  - _indices: 2f0000003000000031000000
    _distinctIndices: 2f0000003000000031000000
    _edges:
    - x: 47
      y: 48
    - x: 48
      y: 49
    - x: 49
      y: 47
    _smoothingGroup: 0
    _uv:
      useWorldSpace: 0
      flipU: 0
      flipV: 0
      swapUV: 0
      fill: 1
      scale: {x: 1, y: 1}
      offset: {x: 0, y: 0}
      rotation: 0
      justify: 5
      localPivot: {x: .176776797, y: .25000003}
      localSize: {x: .353553474, y: .50000006}
    _mat: {fileID: 2100000, guid: 55296d1b6ee54e14e8eb4648d4b448ee, type: 2}
    manualUV: 0
    elementGroup: 0
    textureGroup: -1
  - _indices: 350000003600000037000000
    _distinctIndices: 350000003600000037000000
    _edges:
    - x: 53
      y: 54
    - x: 54
      y: 55
    - x: 55
      y: 53
    _smoothingGroup: 0
    _uv:
      useWorldSpace: 0
      flipU: 0
      flipV: 0
      swapUV: 0
      fill: 1
      scale: {x: 1, y: 1}
      offset: {x: 0, y: 0}
      rotation: 0
      justify: 5
      localPivot: {x: .24999997, y: .176776797}
      localSize: {x: .50000006, y: .353553474}
    _mat: {fileID: 2100000, guid: 55296d1b6ee54e14e8eb4648d4b448ee, type: 2}
    manualUV: 0
    elementGroup: 0
    textureGroup: -1
  - _indices: 3b0000003c0000003d000000
    _distinctIndices: 3b0000003c0000003d000000
    _edges:
    - x: 59
      y: 60
    - x: 60
      y: 61
    - x: 61
      y: 59
    _smoothingGroup: 0
    _uv:
      useWorldSpace: 0
      flipU: 0
      flipV: 0
      swapUV: 0
      fill: 1
      scale: {x: 1, y: 1}
      offset: {x: 0, y: 0}
      rotation: 0
      justify: 5
      localPivot: {x: .24999997, y: .17677629}
      localSize: {x: .50000006, y: .35355258}
    _mat: {fileID: 2100000, guid: 55296d1b6ee54e14e8eb4648d4b448ee, type: 2}
    manualUV: 0
    elementGroup: 0
    textureGroup: -1
  - _indices: 410000004200000043000000
    _distinctIndices: 410000004200000043000000
    _edges:
    - x: 65
      y: 66
    - x: 66
      y: 67
    - x: 67
      y: 65
    _smoothingGroup: 0
    _uv:
      useWorldSpace: 0
      flipU: 0
      flipV: 0
      swapUV: 0
      fill: 1
      scale: {x: 1, y: 1}
      offset: {x: 0, y: 0}
      rotation: 0
      justify: 5
      localPivot: {x: .176776797, y: .249999523}
      localSize: {x: .353553474, y: .499999046}
    _mat: {fileID: 2100000, guid: 55296d1b6ee54e14e8eb4648d4b448ee, type: 2}
    manualUV: 0
    elementGroup: 0
    textureGroup: -1
  - _indices: 470000004800000049000000
    _distinctIndices: 470000004800000049000000
    _edges:
    - x: 71
      y: 72
    - x: 72
      y: 73
    - x: 73
      y: 71
    _smoothingGroup: 0
    _uv:
      useWorldSpace: 0
      flipU: 0
      flipV: 0
      swapUV: 0
      fill: 1
      scale: {x: 1, y: 1}
      offset: {x: 0, y: 0}
      rotation: 0
      justify: 5
      localPivot: {x: .176776409, y: .249999523}
      localSize: {x: .353552818, y: .499999046}
    _mat: {fileID: 2100000, guid: 55296d1b6ee54e14e8eb4648d4b448ee, type: 2}
    manualUV: 0
    elementGroup: 0
    textureGroup: -1
  - _indices: 4d0000004e0000004f000000
    _distinctIndices: 4d0000004e0000004f000000
    _edges:
    - x: 77
      y: 78
    - x: 78
      y: 79
    - x: 79
      y: 77
    _smoothingGroup: 0
    _uv:
      useWorldSpace: 0
      flipU: 0
      flipV: 0
      swapUV: 0
      fill: 1
      scale: {x: 1, y: 1}
      offset: {x: 0, y: 0}
      rotation: 0
      justify: 5
      localPivot: {x: .249999762, y: .17677629}
      localSize: {x: .499999523, y: .35355258}
    _mat: {fileID: 2100000, guid: 55296d1b6ee54e14e8eb4648d4b448ee, type: 2}
    manualUV: 0
    elementGroup: 0
    textureGroup: -1
  _sharedIndices:
  - array: 000000001e000000200000004c000000
  - array: 010000001f000000230000004f000000
  - array: 02000000040000002200000026000000
  - array: 03000000050000002500000029000000
  - array: 0600000008000000280000002c000000
  - array: 07000000090000002b0000002f000000
  - array: 0a0000000c0000002e00000032000000
  - array: 0b0000000d0000003100000035000000
  - array: 0e000000100000003400000038000000
  - array: 0f00000011000000370000003b000000
  - array: 12000000140000003a0000003e000000
  - array: 13000000150000003d00000041000000
  - array: 16000000180000004000000044000000
  - array: 17000000190000004300000047000000
  - array: 1a0000001c000000460000004a000000
  - array: 1b0000001d000000490000004d000000
  - array: 21000000270000002d00000033000000390000003f000000450000004b000000
  - array: 240000002a00000030000000360000003c00000042000000480000004e000000
  _vertices:
  - {x: 1.5033114, y: -1.1012454, z: -.799952745}
  - {x: 1.5033114, y: -.901245654, z: -.799952745}
  - {x: 1.35686493, y: -1.1012454, z: -.446399331}
  - {x: 1.35686493, y: -.901245654, z: -.446399331}
  - {x: 1.35686493, y: -1.1012454, z: -.446399331}
  - {x: 1.35686493, y: -.901245654, z: -.446399331}
  - {x: 1.00331175, y: -1.1012454, z: -.299952686}
  - {x: 1.00331175, y: -.901245654, z: -.299952686}
  - {x: 1.00331175, y: -1.1012454, z: -.299952686}
  - {x: 1.00331175, y: -.901245654, z: -.299952686}
  - {x: .649758399, y: -1.1012454, z: -.446399331}
  - {x: .649758399, y: -.901245654, z: -.446399331}
  - {x: .649758399, y: -1.1012454, z: -.446399331}
  - {x: .649758399, y: -.901245654, z: -.446399331}
  - {x: .503311813, y: -1.1012454, z: -.799952805}
  - {x: .503311813, y: -.901245654, z: -.799952805}
  - {x: .503311813, y: -1.1012454, z: -.799952805}
  - {x: .503311813, y: -.901245654, z: -.799952805}
  - {x: .649758399, y: -1.1012454, z: -1.15350533}
  - {x: .649758399, y: -.901245654, z: -1.15350533}
  - {x: .649758399, y: -1.1012454, z: -1.15350533}
  - {x: .649758399, y: -.901245654, z: -1.15350533}
  - {x: 1.00331187, y: -1.1012454, z: -1.29995179}
  - {x: 1.00331187, y: -.901245654, z: -1.29995179}
  - {x: 1.00331187, y: -1.1012454, z: -1.29995179}
  - {x: 1.00331187, y: -.901245654, z: -1.29995179}
  - {x: 1.35686469, y: -1.1012454, z: -1.15350533}
  - {x: 1.35686469, y: -.901245654, z: -1.15350533}
  - {x: 1.35686469, y: -1.1012454, z: -1.15350533}
  - {x: 1.35686469, y: -.901245654, z: -1.15350533}
  - {x: 1.5033114, y: -1.1012454, z: -.799952745}
  - {x: 1.5033114, y: -.901245654, z: -.799952745}
  - {x: 1.5033114, y: -1.1012454, z: -.799952745}
  - {x: 1.00331187, y: -1.1012454, z: -.799952745}
  - {x: 1.35686493, y: -1.1012454, z: -.446399331}
  - {x: 1.5033114, y: -.901245654, z: -.799952745}
  - {x: 1.00331187, y: -.901245654, z: -.799952745}
  - {x: 1.35686493, y: -.901245654, z: -.446399331}
  - {x: 1.35686493, y: -1.1012454, z: -.446399331}
  - {x: 1.00331187, y: -1.1012454, z: -.799952745}
  - {x: 1.00331175, y: -1.1012454, z: -.299952686}
  - {x: 1.35686493, y: -.901245654, z: -.446399331}
  - {x: 1.00331187, y: -.901245654, z: -.799952745}
  - {x: 1.00331175, y: -.901245654, z: -.299952686}
  - {x: 1.00331175, y: -1.1012454, z: -.299952686}
  - {x: 1.00331187, y: -1.1012454, z: -.799952745}
  - {x: .649758399, y: -1.1012454, z: -.446399331}
  - {x: 1.00331175, y: -.901245654, z: -.299952686}
  - {x: 1.00331187, y: -.901245654, z: -.799952745}
  - {x: .649758399, y: -.901245654, z: -.446399331}
  - {x: .649758399, y: -1.1012454, z: -.446399331}
  - {x: 1.00331187, y: -1.1012454, z: -.799952745}
  - {x: .503311813, y: -1.1012454, z: -.799952805}
  - {x: .649758399, y: -.901245654, z: -.446399331}
  - {x: 1.00331187, y: -.901245654, z: -.799952745}
  - {x: .503311813, y: -.901245654, z: -.799952805}
  - {x: .503311813, y: -1.1012454, z: -.799952805}
  - {x: 1.00331187, y: -1.1012454, z: -.799952745}
  - {x: .649758399, y: -1.1012454, z: -1.15350533}
  - {x: .503311813, y: -.901245654, z: -.799952805}
  - {x: 1.00331187, y: -.901245654, z: -.799952745}
  - {x: .649758399, y: -.901245654, z: -1.15350533}
  - {x: .649758399, y: -1.1012454, z: -1.15350533}
  - {x: 1.00331187, y: -1.1012454, z: -.799952745}
  - {x: 1.00331187, y: -1.1012454, z: -1.29995179}
  - {x: .649758399, y: -.901245654, z: -1.15350533}
  - {x: 1.00331187, y: -.901245654, z: -.799952745}
  - {x: 1.00331187, y: -.901245654, z: -1.29995179}
  - {x: 1.00331187, y: -1.1012454, z: -1.29995179}
  - {x: 1.00331187, y: -1.1012454, z: -.799952745}
  - {x: 1.35686469, y: -1.1012454, z: -1.15350533}
  - {x: 1.00331187, y: -.901245654, z: -1.29995179}
  - {x: 1.00331187, y: -.901245654, z: -.799952745}
  - {x: 1.35686469, y: -.901245654, z: -1.15350533}
  - {x: 1.35686469, y: -1.1012454, z: -1.15350533}
  - {x: 1.00331187, y: -1.1012454, z: -.799952745}
  - {x: 1.5033114, y: -1.1012454, z: -.799952745}
  - {x: 1.35686469, y: -.901245654, z: -1.15350533}
  - {x: 1.00331187, y: -.901245654, z: -.799952745}
  - {x: 1.5033114, y: -.901245654, z: -.799952745}
  _uv:
  - {x: -1.1920929e-07, y: 0}
  - {x: -1.1920929e-07, y: .19999975}
  - {x: .382683277, y: 0}
  - {x: .382683277, y: .19999975}
  - {x: 0, y: 0}
  - {x: 0, y: .19999975}
  - {x: .382683277, y: 0}
  - {x: .382683277, y: .19999975}
  - {x: 0, y: 0}
  - {x: 0, y: .19999975}
  - {x: .382683426, y: 0}
  - {x: .382683426, y: .19999975}
  - {x: -1.49011612e-08, y: 0}
  - {x: -1.49011612e-08, y: .19999975}
  - {x: .382683516, y: 0}
  - {x: .382683516, y: .19999975}
  - {x: -5.96046448e-08, y: 0}
  - {x: -5.96046448e-08, y: .19999975}
  - {x: .382682621, y: 0}
  - {x: .382682621, y: .19999975}
  - {x: -1.1920929e-07, y: 0}
  - {x: -1.1920929e-07, y: .19999975}
  - {x: .382683277, y: 0}
  - {x: .382683277, y: .19999975}
  - {x: -2.98023224e-08, y: 0}
  - {x: -2.98023224e-08, y: .19999975}
  - {x: .3826828, y: 0}
  - {x: .3826828, y: .19999975}
  - {x: 0, y: 0}
  - {x: 0, y: .19999975}
  - {x: .382682681, y: 0}
  - {x: .382682681, y: .19999975}
  - {x: 0, y: 0}
  - {x: .499999523, y: 0}
  - {x: .146446466, y: .353553414}
  - {x: .499999523, y: 0}
  - {x: 0, y: 0}
  - {x: .353553057, y: .353553414}
  - {x: 0, y: .353553414}
  - {x: .353553057, y: 0}
  - {x: .353553176, y: .50000006}
  - {x: .353553295, y: .353553414}
  - {x: 2.38418579e-07, y: 0}
  - {x: 1.1920929e-07, y: .50000006}
  - {x: 1.1920929e-07, y: .50000006}
  - {x: 0, y: 0}
  - {x: .353553474, y: .353553414}
  - {x: .353553414, y: .50000006}
  - {x: .353553534, y: 0}
  - {x: 5.96046448e-08, y: .353553414}
  - {x: .353553474, y: .353553534}
  - {x: 0, y: 1.1920929e-07}
  - {x: .50000006, y: 5.96046448e-08}
  - {x: .146446526, y: .353553534}
  - {x: .5, y: 1.1920929e-07}
  - {x: -5.96046448e-08, y: 5.96046448e-08}
  - {x: .50000006, y: .35355252}
  - {x: 0, y: .35355258}
  - {x: .353553474, y: 0}
  - {x: -5.96046448e-08, y: .35355252}
  - {x: .5, y: .35355258}
  - {x: .146446526, y: 0}
  - {x: .353553474, y: .146446466}
  - {x: 0, y: .499999046}
  - {x: 0, y: 0}
  - {x: 5.96046448e-08, y: .146446466}
  - {x: .353553534, y: .499999046}
  - {x: .353553534, y: 0}
  - {x: .353552818, y: 0}
  - {x: .353552818, y: .499999046}
  - {x: 0, y: .146446466}
  - {x: 0, y: 0}
  - {x: 0, y: .499999046}
  - {x: .353552818, y: .146446466}
  - {x: .146446705, y: 0}
  - {x: .499999523, y: .35355258}
  - {x: 0, y: .35355258}
  - {x: .353552818, y: 0}
  - {x: 0, y: .35355258}
  - {x: .499999523, y: .35355258}
  _sharedIndicesUV: []
  _colors:
  - {r: 1, g: .972413778, b: 0, a: 1}
  - {r: 1, g: .972413778, b: 0, a: 1}
  - {r: 1, g: .972413778, b: 0, a: 1}
  - {r: 1, g: .972413778, b: 0, a: 1}
  - {r: 1, g: .972413778, b: 0, a: 1}
  - {r: 1, g: .972413778, b: 0, a: 1}
  - {r: 1, g: .972413778, b: 0, a: 1}
  - {r: 1, g: .972413778, b: 0, a: 1}
  - {r: 1, g: .972413778, b: 0, a: 1}
  - {r: 1, g: .972413778, b: 0, a: 1}
  - {r: 1, g: .972413778, b: 0, a: 1}
  - {r: 1, g: .972413778, b: 0, a: 1}
  - {r: 1, g: .972413778, b: 0, a: 1}
  - {r: 1, g: .972413778, b: 0, a: 1}
  - {r: 1, g: .972413778, b: 0, a: 1}
  - {r: 1, g: .972413778, b: 0, a: 1}
  - {r: 1, g: .972413778, b: 0, a: 1}
  - {r: 1, g: .972413778, b: 0, a: 1}
  - {r: 1, g: .972413778, b: 0, a: 1}
  - {r: 1, g: .972413778, b: 0, a: 1}
  - {r: 1, g: .972413778, b: 0, a: 1}
  - {r: 1, g: .972413778, b: 0, a: 1}
  - {r: 1, g: .972413778, b: 0, a: 1}
  - {r: 1, g: .972413778, b: 0, a: 1}
  - {r: 1, g: .972413778, b: 0, a: 1}
  - {r: 1, g: .972413778, b: 0, a: 1}
  - {r: 1, g: .972413778, b: 0, a: 1}
  - {r: 1, g: .972413778, b: 0, a: 1}
  - {r: 1, g: .972413778, b: 0, a: 1}
  - {r: 1, g: .972413778, b: 0, a: 1}
  - {r: 1, g: .972413778, b: 0, a: 1}
  - {r: 1, g: .972413778, b: 0, a: 1}
  - {r: 1, g: .972413778, b: 0, a: 1}
  - {r: 1, g: .972413778, b: 0, a: 1}
  - {r: 1, g: .972413778, b: 0, a: 1}
  - {r: 1, g: .972413778, b: 0, a: 1}
  - {r: 1, g: .972413778, b: 0, a: 1}
  - {r: 1, g: .972413778, b: 0, a: 1}
  - {r: 1, g: .972413778, b: 0, a: 1}
  - {r: 1, g: .972413778, b: 0, a: 1}
  - {r: 1, g: .972413778, b: 0, a: 1}
  - {r: 1, g: .972413778, b: 0, a: 1}
  - {r: 1, g: .972413778, b: 0, a: 1}
  - {r: 1, g: .972413778, b: 0, a: 1}
  - {r: 1, g: .972413778, b: 0, a: 1}
  - {r: 1, g: .972413778, b: 0, a: 1}
  - {r: 1, g: .972413778, b: 0, a: 1}
  - {r: 1, g: .972413778, b: 0, a: 1}
  - {r: 1, g: .972413778, b: 0, a: 1}
  - {r: 1, g: .972413778, b: 0, a: 1}
  - {r: 1, g: .972413778, b: 0, a: 1}
  - {r: 1, g: .972413778, b: 0, a: 1}
  - {r: 1, g: .972413778, b: 0, a: 1}
  - {r: 1, g: .972413778, b: 0, a: 1}
  - {r: 1, g: .972413778, b: 0, a: 1}
  - {r: 1, g: .972413778, b: 0, a: 1}
  - {r: 1, g: .972413778, b: 0, a: 1}
  - {r: 1, g: .972413778, b: 0, a: 1}
  - {r: 1, g: .972413778, b: 0, a: 1}
  - {r: 1, g: .972413778, b: 0, a: 1}
  - {r: 1, g: .972413778, b: 0, a: 1}
  - {r: 1, g: .972413778, b: 0, a: 1}
  - {r: 1, g: .972413778, b: 0, a: 1}
  - {r: 1, g: .972413778, b: 0, a: 1}
  - {r: 1, g: .972413778, b: 0, a: 1}
  - {r: 1, g: .972413778, b: 0, a: 1}
  - {r: 1, g: .972413778, b: 0, a: 1}
  - {r: 1, g: .972413778, b: 0, a: 1}
  - {r: 1, g: .972413778, b: 0, a: 1}
  - {r: 1, g: .972413778, b: 0, a: 1}
  - {r: 1, g: .972413778, b: 0, a: 1}
  - {r: 1, g: .972413778, b: 0, a: 1}
  - {r: 1, g: .972413778, b: 0, a: 1}
  - {r: 1, g: .972413778, b: 0, a: 1}
  - {r: 1, g: .972413778, b: 0, a: 1}
  - {r: 1, g: .972413778, b: 0, a: 1}
  - {r: 1, g: .972413778, b: 0, a: 1}
  - {r: 1, g: .972413778, b: 0, a: 1}
  - {r: 1, g: .972413778, b: 0, a: 1}
  - {r: 1, g: .972413778, b: 0, a: 1}
  angleError: 8
  areaError: 15
  hardAngle: 88
  packMargin: 20
  m_selectedFaces: 
  m_SelectedEdges: []
  m_selectedTriangles: 
  previousTransform: {x: 0, y: 0, z: 0}
  userCollisions: 0
  isSelectable: 1
  _name: Cylinder
  dontDestroyMeshOnDelete: 0
--- !u!114 &11463258
MonoBehaviour:
  m_ObjectHideFlags: 1
  m_PrefabParentObject: {fileID: 0}
  m_PrefabInternal: {fileID: 100100000}
  m_GameObject: {fileID: 142012}
  m_Enabled: 1
  m_EditorHideFlags: 0
  m_Script: {fileID: 16342205, guid: 2e350ef818b03ea4aa5f878c4db0d54e, type: 3}
  m_Name: 
  m_EditorClassIdentifier: 
  _entityType: 0
--- !u!1001 &100100000
Prefab:
  m_ObjectHideFlags: 1
  serializedVersion: 2
  m_Modification:
    m_TransformParent: {fileID: 0}
    m_Modifications:
    - target: {fileID: 0}
      propertyPath: m_TagString
      value: Coin
      objectReference: {fileID: 0}
    m_RemovedComponents: []
  m_ParentPrefab: {fileID: 0}
  m_RootGameObject: {fileID: 142012}
  m_IsPrefabParent: 1
